{
    "attributes": [
      {
        "trait_type": "Background",
        "value": "Bleu clair"
      },
      {
        "trait_type": "Specie",
        "value": "Orque"
      }
    ],
    "description": "Directeur commercial",
    "image": "https://gateway.pinata.cloud/ipfs/QmY9LjnPzzdRyT8sQnSdDMoxDtJi3fJV6MbyeASNHrveE2",
    "name": "Himran"
}
