{
    "attributes": [
      {
        "trait_type": "Background",
        "value": "Bleu"
      },
      {
        "trait_type": "Specie",
        "value": "Serpent"
      }
    ],
    "description": "Graphiste",
    "image": "https://gateway.pinata.cloud/ipfs/QmRczY4d2hwnCeqbscjkvK8JTprEuxkHQvamBCHsDN95re",
    "name": "Lucas"
}
  